1000	1.8535599997e-04
2000	4.0914100009e-04
3000	6.4573699979e-04
4000	8.9267099997e-04
5000	1.1696610002e-03
6000	9.3910100009e-04
7000	5.9064199991e-04
8000	6.8235300000e-04
9000	8.0867500014e-04
10000	9.2629200003e-04
11000	1.0074480001e-03
12000	1.1202359999e-03
13000	1.2220839999e-03
14000	1.3177100000e-03
15000	1.4493189999e-03
16000	1.5769100000e-03
17000	1.7406980000e-03
18000	1.7683870001e-03
19000	1.8874630000e-03
20000	2.1111510000e-03
21000	2.1755470000e-03
22000	2.3257070000e-03
23000	2.3614009999e-03
24000	2.5073639999e-03
25000	2.6540859999e-03
26000	2.8387820000e-03
27000	2.8996330000e-03
28000	2.9705600000e-03
29000	2.9859739998e-03
30000	3.1730240000e-03
31000	3.3518000000e-03
32000	3.4532299999e-03
33000	3.8222750002e-03
34000	3.8088030001e-03
35000	3.9980949998e-03
36000	4.0548380000e-03
37000	4.1562270001e-03
38000	4.4128090001e-03
39000	4.4399029998e-03
40000	4.5294800000e-03
41000	4.6780630000e-03
42000	4.7635560002e-03
43000	5.1130879999e-03
44000	5.2122669999e-03
45000	5.2137490002e-03
46000	5.3496889998e-03
47000	5.4043310001e-03
48000	5.8533180002e-03
49000	5.9822380001e-03
50000	6.1770049999e-03
51000	6.3481310001e-03
52000	6.0631710001e-03
53000	6.2984240001e-03
54000	6.5353240000e-03
55000	6.6449589999e-03
56000	7.0178360002e-03
57000	7.0038120000e-03
58000	6.8413900001e-03
59000	6.9317299999e-03
60000	7.2174350000e-03
61000	7.3863040000e-03
62000	7.6297970002e-03
63000	7.7677719999e-03
64000	7.6433830000e-03
65000	7.9647539999e-03
66000	8.2899479999e-03
67000	8.4399990001e-03
68000	8.7145720001e-03
69000	8.6225749999e-03
70000	8.9006619999e-03
71000	8.8338979999e-03
72000	9.2358120000e-03
73000	9.3143859999e-03
74000	9.5721190000e-03
75000	9.7104590000e-03
76000	9.7899230000e-03
77000	1.0157470000e-02
78000	1.0396450000e-02
79000	1.0407052000e-02
80000	1.0414197000e-02
81000	1.1293185000e-02
82000	1.0667994000e-02
83000	1.1366962000e-02
84000	1.1419975000e-02
85000	1.1424655000e-02
86000	1.1470389000e-02
87000	1.1835258000e-02
88000	1.3817487000e-02
89000	1.2342497000e-02
90000	1.3144648000e-02
91000	1.2904173000e-02
92000	1.2742498000e-02
93000	1.2994315000e-02
94000	1.3256461000e-02
95000	1.3050584000e-02
96000	1.3288129000e-02
97000	1.3573224000e-02
98000	1.4955235000e-02
99000	1.3970890000e-02
100000	1.5679397000e-02
101000	1.4362548000e-02
102000	1.4524185000e-02
103000	1.4912771000e-02
104000	1.4803274000e-02
105000	1.5871274000e-02
106000	1.5112766000e-02
107000	1.5516146000e-02
108000	1.6000392000e-02
109000	1.6050838000e-02
110000	1.5537844000e-02
111000	1.7491961000e-02
112000	2.0140865000e-02
113000	1.6049676000e-02
114000	1.6223227000e-02
115000	1.6898526000e-02
116000	1.6529840000e-02
117000	1.7191565000e-02
118000	1.7165677000e-02
119000	1.7342641000e-02
120000	1.7347447000e-02
121000	1.7308473000e-02
122000	1.7405176000e-02
123000	1.8333546000e-02
124000	1.8109565000e-02
125000	1.8661095000e-02
126000	1.8501000000e-02
127000	1.8348245000e-02
128000	1.8875640000e-02
129000	1.8492525000e-02
130000	1.8984070000e-02
131000	1.9250877000e-02
132000	1.9986350000e-02
133000	1.9483357000e-02
134000	1.9927766000e-02
135000	2.0208548000e-02
136000	2.0530650000e-02
137000	2.1070517000e-02
138000	2.1318406000e-02
139000	2.0944436000e-02
140000	2.1456647000e-02
141000	2.2039571000e-02
142000	2.1654651000e-02
143000	2.1424226000e-02
144000	2.2199817000e-02
145000	2.1812899000e-02
146000	2.1747227000e-02
147000	2.1790904000e-02
148000	2.2245797000e-02
149000	2.2849645000e-02
150000	2.2425398000e-02
151000	2.2615921000e-02
152000	2.2500697000e-02
153000	2.3763104000e-02
154000	2.3805311000e-02
155000	2.2970373000e-02
156000	2.4106517000e-02
157000	2.4039398000e-02
158000	2.3852134000e-02
159000	2.3834311000e-02
160000	2.4218849000e-02
161000	2.3781466000e-02
162000	2.4825302000e-02
163000	2.5396773000e-02
164000	2.4782547000e-02
165000	2.5292160000e-02
166000	2.5050361000e-02
167000	2.5031136000e-02
168000	2.5777984000e-02
169000	2.5856784000e-02
170000	2.6172623000e-02
171000	2.6600474000e-02
172000	2.6107499000e-02
173000	2.6195574000e-02
174000	2.6794966000e-02
175000	2.7439872000e-02
176000	2.7030707000e-02
177000	2.6558239000e-02
178000	2.7199606000e-02
179000	2.8225288000e-02
180000	2.7501480000e-02
181000	2.7830414000e-02
182000	2.8295765000e-02
183000	2.7686596000e-02
184000	2.8302886000e-02
185000	2.9395007000e-02
186000	2.8668168000e-02
187000	2.8531545000e-02
188000	2.9576338000e-02
189000	2.9361302000e-02
190000	2.9167633000e-02
191000	2.9277448000e-02
192000	2.9878780000e-02
193000	3.0297811000e-02
194000	3.0470392000e-02
195000	3.0288886000e-02
196000	3.0411256000e-02
197000	3.1607505000e-02
198000	3.1685732000e-02
199000	3.1531350000e-02
200000	3.0844956000e-02
201000	3.1678597000e-02
202000	3.0835122000e-02
203000	3.1679364000e-02
204000	3.2638655000e-02
205000	3.2494380000e-02
206000	3.1659532000e-02
207000	3.2590262000e-02
208000	3.2972601000e-02
209000	3.2604974000e-02
210000	3.2495600000e-02
211000	3.3436878000e-02
212000	3.2602000000e-02
213000	3.2890764000e-02
214000	3.3433868000e-02
215000	3.3603101000e-02
216000	3.3849074000e-02
217000	3.4334044000e-02
218000	3.5008848000e-02
219000	3.4227852000e-02
220000	3.4583443000e-02
221000	3.4618916000e-02
222000	3.5230403000e-02
223000	3.5693940000e-02
224000	3.5534694000e-02
225000	3.5493417000e-02
226000	3.5913183000e-02
227000	3.5950142000e-02
228000	3.6720188000e-02
229000	3.6526776000e-02
230000	3.7029859000e-02
231000	3.7228757000e-02
232000	3.7347408000e-02
233000	3.7014923000e-02
234000	3.7695330000e-02
235000	3.7766826000e-02
236000	3.8091370000e-02
237000	3.9521076000e-02
238000	3.7844972000e-02
239000	3.8600315000e-02
240000	3.9573709000e-02
241000	3.8865081000e-02
242000	3.9149457000e-02
243000	3.9977157000e-02
244000	3.9168440000e-02
245000	3.9917745000e-02
246000	3.9878557000e-02
247000	3.9096489000e-02
248000	3.9526823000e-02
249000	4.0275483000e-02
250000	4.0442078000e-02
251000	4.1574540000e-02
252000	4.1193858000e-02
253000	4.0835727000e-02
254000	4.1391528000e-02
255000	4.1708388000e-02
256000	4.1057234000e-02
257000	4.1828004000e-02
258000	4.1435268000e-02
259000	4.2290420000e-02
260000	4.3278191000e-02
261000	4.2803940000e-02
262000	4.2323161000e-02
263000	4.4623643000e-02
264000	4.3546198000e-02
265000	4.2353107000e-02
266000	4.3163516000e-02
267000	4.4978127000e-02
268000	4.4000270000e-02
269000	4.5213879000e-02
270000	4.4794372000e-02
271000	4.4645979000e-02
272000	4.4049482000e-02
273000	4.6016103000e-02
274000	4.4975710000e-02
275000	4.5451452000e-02
276000	4.6924597000e-02
277000	4.6201776000e-02
278000	4.6536293000e-02
279000	4.6803108000e-02
280000	4.7012949000e-02
281000	4.6690775000e-02
282000	4.6664538000e-02
283000	4.7240111000e-02
284000	4.7772821000e-02
285000	4.7171455000e-02
286000	4.7838713000e-02
287000	4.8215329000e-02
288000	4.7301865000e-02
289000	5.0306951000e-02
290000	4.7889583000e-02
291000	4.8508550000e-02
292000	4.8528308000e-02
293000	4.9263396000e-02
294000	4.9399924000e-02
295000	4.9614428000e-02
296000	4.9691571000e-02
297000	4.9284365000e-02
298000	5.0428921000e-02
299000	5.0367107000e-02
300000	4.9901390000e-02
301000	5.2271517000e-02
302000	5.0973201000e-02
303000	5.0254908000e-02
304000	5.0197730000e-02
305000	5.0931308000e-02
306000	5.2166436000e-02
307000	5.1171195000e-02
308000	5.1155227000e-02
309000	5.2692387000e-02
310000	5.3062242000e-02
311000	5.4266605000e-02
312000	5.3143528000e-02
313000	5.4508121000e-02
314000	5.1242137000e-02
315000	5.5118692000e-02
316000	5.3559894000e-02
317000	5.3866191000e-02
318000	5.4249355000e-02
319000	5.3677889000e-02
320000	5.3806139000e-02
321000	5.6757025000e-02
322000	5.4180177000e-02
323000	5.4890052000e-02
324000	5.5542836000e-02
325000	5.6482556000e-02
326000	5.4499259000e-02
327000	5.5796000000e-02
328000	5.5049564000e-02
329000	5.5306778000e-02
330000	5.6402715000e-02
331000	5.6244237000e-02
332000	5.6057813000e-02
333000	5.6981250000e-02
334000	5.6084570000e-02
335000	5.6558170000e-02
336000	5.6466070000e-02
337000	5.7506216000e-02
338000	5.8069446000e-02
339000	5.8402474000e-02
340000	5.7842231000e-02
341000	5.8621188000e-02
342000	5.7744843000e-02
343000	5.8462353000e-02
344000	5.9779821000e-02
345000	5.8739660000e-02
346000	5.8211433000e-02
347000	5.8887037000e-02
348000	5.9764590000e-02
349000	6.0860338000e-02
350000	5.9744794000e-02
351000	6.2081514000e-02
352000	6.1098411000e-02
353000	6.0972820000e-02
354000	5.9763753000e-02
355000	6.0582558000e-02
356000	6.1440592000e-02
357000	6.1921381000e-02
358000	6.1482422000e-02
359000	6.2796752000e-02
360000	6.2309555000e-02
361000	6.2964770000e-02
362000	6.2629682000e-02
363000	6.2947186000e-02
364000	6.2783665000e-02
365000	6.2046995000e-02
366000	6.3624942000e-02
367000	6.3654224000e-02
368000	6.3673326000e-02
369000	6.3746170000e-02
370000	6.4028049000e-02
371000	6.5263485000e-02
372000	6.3489787000e-02
373000	6.4757117000e-02
374000	6.3994544000e-02
375000	6.3991405000e-02
376000	6.3860324000e-02
377000	6.4504290000e-02
378000	6.5805130000e-02
379000	6.8562300000e-02
380000	6.7139580000e-02
381000	6.8087216000e-02
382000	6.7264858000e-02
383000	6.8521244000e-02
384000	6.6351015000e-02
385000	6.8827407000e-02
386000	6.5775496000e-02
387000	6.7185062000e-02
388000	6.8131513000e-02
389000	6.7970788000e-02
390000	6.6967478000e-02
391000	6.9876711000e-02
392000	6.6718412000e-02
393000	6.8758738000e-02
394000	6.7543527000e-02
395000	6.9826090000e-02
396000	6.8837152000e-02
397000	6.9421990000e-02
398000	6.9161394000e-02
399000	6.9655749000e-02
400000	7.0054274000e-02
401000	6.9379340000e-02
402000	7.1731145000e-02
403000	6.9946206000e-02
404000	7.1444631000e-02
405000	7.2512978000e-02
406000	7.1640737000e-02
407000	7.0901247000e-02
408000	7.0339465000e-02
409000	7.1605188000e-02
410000	7.3138441000e-02
411000	7.1821462000e-02
412000	7.3845887000e-02
413000	7.2180038000e-02
414000	7.2448338000e-02
415000	7.3820677000e-02
416000	7.4202744000e-02
417000	7.6204939000e-02
418000	7.2986659000e-02
419000	7.3529128000e-02
420000	7.6821428000e-02
421000	7.4793220000e-02
422000	7.6647157000e-02
423000	7.3005328000e-02
424000	7.5169792000e-02
425000	7.4848880000e-02
426000	7.6140830000e-02
427000	7.5207155000e-02
428000	7.5604726000e-02
429000	7.5532807000e-02
430000	7.6798561000e-02
431000	7.5691619000e-02
432000	7.7954890000e-02
433000	7.8118620000e-02
434000	7.7479701000e-02
435000	7.7846283000e-02
436000	7.7609222000e-02
437000	7.6777229000e-02
438000	8.0374661000e-02
439000	7.9708411000e-02
440000	7.9910880000e-02
441000	7.8779387000e-02
442000	7.8903707000e-02
443000	7.9146482000e-02
444000	8.0720357000e-02
445000	7.9179609000e-02
446000	8.2416999000e-02
447000	8.0365908000e-02
448000	8.2662913000e-02
449000	8.0686890000e-02
450000	7.9735767000e-02
451000	8.0959959000e-02
452000	8.0600109000e-02
453000	8.1346214000e-02
454000	8.2403562000e-02
455000	8.3946175000e-02
456000	8.2616527000e-02
457000	8.1182002000e-02
458000	8.3675671000e-02
459000	8.3985292000e-02
460000	8.3050064000e-02
461000	8.3709172000e-02
462000	8.7199576000e-02
463000	8.5026907000e-02
464000	8.3945740000e-02
465000	8.4010149000e-02
466000	8.4303528000e-02
467000	8.3174973000e-02
468000	8.3723274000e-02
469000	8.3645521000e-02
470000	8.6173777000e-02
471000	8.3550507000e-02
472000	8.5715522000e-02
473000	8.7382120000e-02
474000	8.8624245000e-02
475000	8.3062478000e-02
476000	8.6759235000e-02
477000	8.6952583000e-02
478000	8.8384665000e-02
479000	8.6001409000e-02
480000	8.6961030000e-02
481000	8.8390113000e-02
482000	8.6438084000e-02
483000	8.7704790000e-02
484000	8.7322418000e-02
485000	8.7439071000e-02
486000	8.7274860000e-02
487000	8.8302457000e-02
488000	8.9421015000e-02
489000	9.0005005000e-02
490000	8.9652305000e-02
491000	9.0801053000e-02
492000	8.8868673000e-02
493000	9.0204326000e-02
494000	9.2275859000e-02
495000	9.0035265000e-02
496000	8.9900447000e-02
497000	8.7798869000e-02
498000	9.0128901000e-02
499000	8.9974644000e-02
500000	9.4346974000e-02
501000	9.1722547000e-02
502000	9.0648509000e-02
503000	9.1468683000e-02
504000	9.3270040000e-02
505000	9.2286646000e-02
506000	9.2122745000e-02
507000	9.1579031000e-02
508000	9.2009411000e-02
509000	9.3687893000e-02
510000	9.3692281000e-02
511000	9.3756732000e-02
512000	9.4662507000e-02
513000	9.5327582000e-02
514000	9.4933449000e-02
515000	9.5539570000e-02
516000	9.5457009000e-02
517000	9.4089647000e-02
518000	9.4645468000e-02
519000	9.6403267000e-02
520000	9.7026121000e-02
521000	9.8113102000e-02
522000	9.6887922000e-02
523000	9.6823573000e-02
524000	9.7253766000e-02
525000	9.7597059000e-02
526000	9.6779980000e-02
527000	9.8604478000e-02
528000	9.8325724000e-02
529000	9.7098645000e-02
530000	9.7145733000e-02
531000	9.9824981000e-02
532000	9.8087919000e-02
533000	9.8203573000e-02
534000	1.0018433500e-01
535000	1.0263671900e-01
536000	1.0088288800e-01
537000	1.0096476100e-01
538000	1.0208729600e-01
539000	1.0166544100e-01
540000	1.0227980000e-01
541000	1.0411065500e-01
542000	1.0204277400e-01
543000	1.0436886100e-01
544000	1.0521612900e-01
545000	1.0382710800e-01
546000	1.0543385200e-01
547000	1.0683614300e-01
548000	1.0480519000e-01
549000	1.0440555400e-01
550000	1.0476799200e-01
551000	1.0778413900e-01
552000	1.0484815300e-01
553000	1.0625451700e-01
554000	1.0742624000e-01
555000	1.0921071200e-01
556000	1.0840562600e-01
557000	1.0703555100e-01
558000	1.0627172500e-01
559000	1.0868567000e-01
560000	1.0939750600e-01
561000	1.0870506800e-01
562000	1.1087367300e-01
563000	1.0805062500e-01
564000	1.1203845200e-01
565000	1.0897573900e-01
566000	1.1039743300e-01
567000	1.0826330400e-01
568000	1.0839900900e-01
569000	1.1259530900e-01
570000	1.1147437800e-01
571000	1.0948571500e-01
572000	1.1146404100e-01
573000	1.1340231500e-01
574000	1.1514917700e-01
575000	1.1581838400e-01
576000	1.1022396700e-01
577000	1.1228540900e-01
578000	1.1421761700e-01
579000	1.1510103300e-01
580000	1.1215364300e-01
581000	1.1344472900e-01
582000	1.1591677900e-01
583000	1.1484649400e-01
584000	1.1844904500e-01
585000	1.1779219100e-01
586000	1.1876045600e-01
587000	1.1765658900e-01
588000	1.1700624900e-01
589000	1.2107303700e-01
590000	1.1988433100e-01
591000	1.2237320000e-01
592000	1.2069796300e-01
593000	1.1754121300e-01
594000	1.2105965400e-01
595000	1.2038197700e-01
596000	1.1944005000e-01
597000	1.2241781000e-01
598000	1.1888029000e-01
599000	1.2077115300e-01
600000	1.2394181000e-01
601000	1.2363283600e-01
602000	1.2087385200e-01
603000	1.2205445900e-01
604000	1.2493238200e-01
605000	1.2254923600e-01
606000	1.2056243100e-01
607000	1.2084979000e-01
608000	1.2503502100e-01
609000	1.2352308700e-01
610000	1.2845468500e-01
611000	1.2493117900e-01
612000	1.2615451500e-01
613000	1.2546855000e-01
614000	1.2693130300e-01
615000	1.2933523600e-01
616000	1.2612495900e-01
617000	1.3033083500e-01
618000	1.2650815800e-01
619000	1.2698890400e-01
620000	1.2605331800e-01
621000	1.2702125900e-01
622000	1.2951961500e-01
623000	1.3000339100e-01
624000	1.2985487100e-01
625000	1.2831313300e-01
626000	1.3110742700e-01
627000	1.2817884500e-01
628000	1.3025287800e-01
629000	1.2957361400e-01
630000	1.3364016400e-01
631000	1.3254518600e-01
632000	1.2990839700e-01
633000	1.3474643300e-01
634000	1.3151352500e-01
635000	1.3351156100e-01
636000	1.3071881100e-01
637000	1.3220334100e-01
638000	1.3366373000e-01
639000	1.3695405500e-01
640000	1.3465378200e-01
641000	1.3774361800e-01
642000	1.3533799200e-01
643000	1.3442692000e-01
644000	1.3455160300e-01
645000	1.3667528400e-01
646000	1.3486555500e-01
647000	1.3525811200e-01
648000	1.3927200500e-01
649000	1.3463600000e-01
650000	1.4154592400e-01
651000	1.4303245000e-01
652000	1.3540819300e-01
653000	1.3743951600e-01
654000	1.3726028600e-01
655000	1.3729647300e-01
656000	1.3790523700e-01
657000	1.3876625500e-01
658000	1.4147346100e-01
659000	1.4068630400e-01
660000	1.4037374800e-01
661000	1.4039067500e-01
662000	1.4101807600e-01
663000	1.4286065800e-01
664000	1.4152940600e-01
665000	1.4258992900e-01
666000	1.4112984500e-01
667000	1.4194570300e-01
668000	1.4253175700e-01
669000	1.4081355100e-01
670000	1.4192633700e-01
671000	1.4236338800e-01
672000	1.4376848400e-01
673000	1.4191203600e-01
674000	1.4620188500e-01
675000	1.4766167700e-01
676000	1.4116366600e-01
677000	1.4948804500e-01
678000	1.4359019900e-01
679000	1.4317421100e-01
680000	1.4501558300e-01
681000	1.4408312900e-01
682000	1.4525642700e-01
683000	1.4446015900e-01
684000	1.4518515200e-01
685000	1.4843150800e-01
686000	1.4954567800e-01
687000	1.4582559400e-01
688000	1.4622641500e-01
689000	1.4852595900e-01
690000	1.5235130700e-01
691000	1.4941098300e-01
692000	1.5415224800e-01
693000	1.5143868600e-01
694000	1.5099677500e-01
695000	1.4648785600e-01
696000	1.4974960800e-01
697000	1.5230869300e-01
698000	1.4909313500e-01
699000	1.4809589200e-01
700000	1.5478003500e-01
701000	1.5359980500e-01
702000	1.4820475300e-01
703000	1.5482296600e-01
704000	1.5189297800e-01
705000	1.5404633400e-01
706000	1.5133488400e-01
707000	1.5263102600e-01
708000	1.5503601100e-01
709000	1.5095458200e-01
710000	1.5303032500e-01
711000	1.5534934000e-01
712000	1.5429049300e-01
713000	1.5096593400e-01
714000	1.5280458700e-01
715000	1.5650006100e-01
716000	1.5636624800e-01
717000	1.5494043300e-01
718000	1.5200309500e-01
719000	1.5410650800e-01
720000	1.5496531800e-01
721000	1.5471429300e-01
722000	1.5398645200e-01
723000	1.6087663800e-01
724000	1.5741765200e-01
725000	1.5824042800e-01
726000	1.5600276600e-01
727000	1.5679266900e-01
728000	1.5563794900e-01
729000	1.5628661600e-01
730000	1.5857327100e-01
731000	1.5792899800e-01
732000	1.6180507700e-01
733000	1.5648890600e-01
734000	1.5637248400e-01
735000	1.5959182800e-01
736000	1.6386132300e-01
737000	1.5997502800e-01
738000	1.6326054100e-01
739000	1.6162397700e-01
740000	1.6178259200e-01
741000	1.6204063400e-01
742000	1.6206183600e-01
743000	1.6277602700e-01
744000	1.6868334000e-01
745000	1.6214765800e-01
746000	1.6239877800e-01
747000	1.6371796800e-01
748000	1.6377940300e-01
749000	1.6469257800e-01
750000	1.6299508600e-01
751000	1.6605132700e-01
752000	1.6270646100e-01
753000	1.6456848800e-01
754000	1.6583584800e-01
755000	1.6564939500e-01
756000	1.6816399500e-01
757000	1.7085449700e-01
758000	1.6936380400e-01
759000	1.7135437900e-01
760000	1.6825874700e-01
761000	1.6670238000e-01
762000	1.6328828600e-01
763000	1.6860897600e-01
764000	1.6814535400e-01
765000	1.6914555100e-01
766000	1.7031196900e-01
767000	1.6688566500e-01
768000	1.6650542600e-01
769000	1.7019222700e-01
770000	1.6957421800e-01
771000	1.7059356000e-01
772000	1.7049479300e-01
773000	1.6866041100e-01
774000	1.6961614500e-01
775000	1.6849931800e-01
776000	1.7459597900e-01
777000	1.7179309500e-01
778000	1.7195584500e-01
779000	1.7058468500e-01
780000	1.7241656800e-01
781000	1.7336206600e-01
782000	1.7516508300e-01
783000	1.6989874200e-01
784000	1.6921314700e-01
785000	1.7422737300e-01
786000	1.7312569000e-01
787000	1.7466739300e-01
788000	1.7605037900e-01
789000	1.7721540300e-01
790000	1.7736934600e-01
791000	1.7905520500e-01
792000	1.7239743200e-01
793000	1.7571729200e-01
794000	1.7424395700e-01
795000	1.7809799700e-01
796000	1.7483175500e-01
797000	1.7597444700e-01
798000	1.7510705900e-01
799000	1.8064892800e-01
800000	1.8010188800e-01
801000	1.8164706300e-01
802000	1.7799669300e-01
803000	1.7967689300e-01
804000	1.7908113000e-01
805000	1.7867044600e-01
806000	1.8099581300e-01
807000	1.8089856200e-01
808000	1.8076437400e-01
809000	1.8110714700e-01
810000	1.8074425800e-01
811000	1.8064500700e-01
812000	1.8181433300e-01
813000	1.8229387900e-01
814000	1.8501434100e-01
815000	1.8182009700e-01
816000	1.8162646800e-01
817000	1.8153325000e-01
818000	1.8303540100e-01
819000	1.8060359300e-01
820000	1.8218252900e-01
821000	1.8295678000e-01
822000	1.8488175400e-01
823000	1.8461083000e-01
824000	1.8213970300e-01
825000	1.8424905000e-01
826000	1.8782787000e-01
827000	1.8733430800e-01
828000	1.8901178200e-01
829000	1.8815880100e-01
830000	1.8453276300e-01
831000	1.9035603700e-01
832000	1.8507903100e-01
833000	1.8435421700e-01
834000	1.8664403500e-01
835000	1.8785973500e-01
836000	1.9350165900e-01
837000	1.9292563900e-01
838000	1.9670945000e-01
839000	1.8573892500e-01
840000	1.9205475900e-01
841000	1.8739129600e-01
842000	1.8734546600e-01
843000	1.9219561700e-01
844000	1.8918710900e-01
845000	1.9073433600e-01
846000	1.8951521800e-01
847000	1.9466335900e-01
848000	1.9258076200e-01
849000	1.8891732600e-01
850000	1.9552245100e-01
851000	1.9304859600e-01
852000	1.9598000200e-01
853000	1.9030054500e-01
854000	1.8936870200e-01
855000	1.9274902200e-01
856000	1.9080483400e-01
857000	1.9461601000e-01
858000	1.8982316900e-01
859000	1.9510406400e-01
860000	1.9601365700e-01
861000	1.9568092700e-01
862000	1.9695755100e-01
863000	1.9787439000e-01
864000	1.9661334300e-01
865000	1.9650007600e-01
866000	1.9899383000e-01
867000	1.9513975300e-01
868000	1.9546245300e-01
869000	1.9532179000e-01
870000	1.9982544000e-01
871000	1.9838278900e-01
872000	1.9740349500e-01
873000	1.9610615900e-01
874000	1.9580729700e-01
875000	1.9964240100e-01
876000	1.9531894100e-01
877000	1.9723097300e-01
878000	1.9613702400e-01
879000	2.0332271000e-01
880000	2.0005050900e-01
881000	2.0368403200e-01
882000	1.9774845100e-01
883000	1.9833704500e-01
884000	1.9893446500e-01
885000	1.9790121200e-01
886000	1.9974004900e-01
887000	2.0158521200e-01
888000	2.0833928000e-01
889000	1.9898552100e-01
890000	2.0438021400e-01
891000	2.0435749600e-01
892000	2.0483591000e-01
893000	2.0178584600e-01
894000	1.9919960900e-01
895000	2.0551869500e-01
896000	2.0439237200e-01
897000	2.0213011200e-01
898000	2.0237427300e-01
899000	2.0727416500e-01
900000	2.0991241100e-01
901000	2.0438332300e-01
902000	2.0478506500e-01
903000	2.1212519200e-01
904000	2.0333794500e-01
905000	2.0376051300e-01
906000	2.1029049900e-01
907000	2.0755770700e-01
908000	2.0354811000e-01
909000	2.0511909500e-01
910000	2.1121927300e-01
911000	2.1064908500e-01
912000	2.0586243500e-01
913000	2.1284288900e-01
914000	2.1029164100e-01
915000	2.1209066000e-01
916000	2.1787567700e-01
917000	2.0981802200e-01
918000	2.1078614500e-01
919000	2.1065407300e-01
920000	2.1603305100e-01
921000	2.0646028600e-01
922000	2.0762779300e-01
923000	2.0873866700e-01
924000	2.2665098400e-01
925000	2.0966003800e-01
926000	2.1223737200e-01
927000	2.0997490800e-01
928000	2.1383021900e-01
929000	2.1094422900e-01
930000	2.1366050400e-01
931000	2.1219525800e-01
932000	2.1261454200e-01
933000	2.1163157900e-01
934000	2.1419871900e-01
935000	2.1216187300e-01
936000	2.1503074600e-01
937000	2.1806387400e-01
938000	2.1220245100e-01
939000	2.2046885300e-01
940000	2.1407424300e-01
941000	2.1230769500e-01
942000	2.1582617200e-01
943000	2.1441916100e-01
944000	2.1392522600e-01
945000	2.2334358200e-01
946000	2.1765054400e-01
947000	2.2074812200e-01
948000	2.1455947900e-01
949000	2.1638314700e-01
950000	2.1857866800e-01
951000	2.1872719600e-01
952000	2.1934476100e-01
953000	2.2040599400e-01
954000	2.1812123800e-01
955000	2.2099740500e-01
956000	2.2069100800e-01
957000	2.1990902400e-01
958000	2.2355612500e-01
959000	2.1873735900e-01
960000	2.1842059600e-01
961000	2.2262918800e-01
962000	2.2288453700e-01
963000	2.2495149100e-01
964000	2.2525577400e-01
965000	2.2544363200e-01
966000	2.2248547400e-01
967000	2.2185363400e-01
968000	2.2558903000e-01
969000	2.2534262400e-01
970000	2.2272835500e-01
971000	2.2519104300e-01
972000	2.2475144300e-01
973000	2.2782208800e-01
974000	2.2980466400e-01
975000	2.3478289100e-01
976000	2.2328623600e-01
977000	2.2346976200e-01
978000	2.2463136300e-01
979000	2.3090138600e-01
980000	2.3149983500e-01
981000	2.2775819700e-01
982000	2.2806559700e-01
983000	2.2623114000e-01
984000	2.2649770400e-01
985000	2.2939805600e-01
986000	2.2851597600e-01
987000	2.2619942500e-01
988000	2.2951397700e-01
989000	2.2779092200e-01
990000	2.2987745600e-01
991000	2.3248144200e-01
992000	2.2811125600e-01
993000	2.2594708900e-01
994000	2.3489506900e-01
995000	2.3255494500e-01
996000	2.2934337900e-01
997000	2.3167490500e-01
998000	2.2748553600e-01
999000	2.2953665500e-01
1000000	2.3095274600e-01
